{
  "secret_token": "",
  "mainGuildID": "",
  "ticketCategoryID": "",
  "dashboard": {
    "channelID": "",
    "messageID": "",
    "default": "open"
  },
  "voiceTicketChannelID": "",
  "ticketOpening": {
    "channel": "",
    "message": ""
  },
  "transcriptChannelID": "",
  "available": {
    "channelID": "",
    "messageID": ""
  },
  "channels": {
    "channelID": "",
    "messageID": ""
  },
  "setupMode": false,
  "toClose": {},
  "toCloseTime": {
    "default": {
      "open": ["00h00"],
      "close": ["00h00"]
    }
  },
  "toCloseEmojis": [],
  "toCloseMessageChannel": "",
  "referentRoleID": "",
  "logsChannelID": ""
}